<?xml version="1.0" encoding="UTF-8"?>
<svg width="19px" height="19px" viewBox="0 0 19 19" version="1.1" xmlns="http://www.w3.org/2000/svg" xmlns:xlink="http://www.w3.org/1999/xlink">
    <!-- Generator: Sketch 48.2 (47327) - http://www.bohemiancoding.com/sketch -->
    <title>Page 1</title>
    <desc>Created with Sketch.</desc>
    <defs>
        <polygon id="path-1" points="0 0.000119994475 17.9990495 0.000119994475 17.9990495 17.9994413 0 17.9994413"></polygon>
    </defs>
    <g id="Del-Bene-LP-Mobile" stroke="none" stroke-width="1" fill="none" fill-rule="evenodd" transform="translate(-26.000000, -23.000000)">
        <g id="Page-1" transform="translate(26.408547, 23.358564)">
            <mask id="mask-2" fill="white">
                <use xlink:href="#path-1"></use>
            </mask>
            <g id="Clip-2"></g>
            <path d="M13.9516976,11.468442 C13.5890143,11.229953 12.6977554,10.9815644 11.9930878,11.8521243 C11.2875203,12.7229842 10.4169604,14.1743174 7.12101214,10.8783691 C3.8247639,7.58272088 5.27669705,6.71216096 6.14725697,6.00719342 C7.01811688,5.30162591 6.76912834,4.41066693 6.53123929,4.04798363 C6.29275027,3.68470035 4.75832092,1.32170915 4.48863334,0.927227309 C4.21924574,0.53364543 3.85416255,-0.106225109 3.01150135,0.0149693108 C2.3869301,0.105265153 -5.99972376e-05,1.37330677 -5.99972376e-05,4.06838269 C-5.99972376e-05,6.7634586 2.12504216,10.0705063 5.02710855,12.9725727 C7.92917493,15.8746391 11.2359227,17.9994413 13.9312986,17.9994413 C16.6263745,17.9994413 17.8938161,15.6124512 17.983812,14.9878799 C18.1059064,14.1449187 17.4660358,13.7804355 17.072154,13.5110479 C16.6779721,13.2413604 14.3143809,11.706931 13.9516976,11.468442" id="Fill-1" fill="#202020" mask="url(#mask-2)"></path>
        </g>
    </g>
</svg>