<?xml version="1.0" encoding="UTF-8"?>
<svg width="96px" height="106px" viewBox="0 0 96 106" version="1.1" xmlns="http://www.w3.org/2000/svg" xmlns:xlink="http://www.w3.org/1999/xlink">
    <!-- Generator: Sketch 48.2 (47327) - http://www.bohemiancoding.com/sketch -->
    <title>strawberry icon</title>
    <desc>Created with Sketch.</desc>
    <defs></defs>
    <g id="Symbols" stroke="none" stroke-width="1" fill="none" fill-rule="evenodd">
        <g id="strawberry-icon">
            <g id="Group-6" transform="translate(46.176311, 54.127551) rotate(28.000000) translate(-46.176311, -54.127551) translate(7.176311, 1.127551)">
                <path d="M0,49.0139493 C0,37.8252256 5.45441417,28.3190991 15.358779,22.2471736 C16.4977084,21.5496922 17.9861847,21.9063332 18.6846334,23.0452626 C19.3827597,24.1838696 19.0254739,25.6729907 17.8868669,26.3711171 C9.47162325,31.5301577 4.8369029,39.57167 4.8369029,49.0139493 C4.8369029,66.1352958 19.8738063,100.432508 38.6322831,100.432508 C57.3907599,100.432508 72.8760036,66.1352958 72.8760036,49.0139493 C72.8760036,39.4678378 68.1535741,31.3727971 59.5783902,26.2205281 C58.4336565,25.533043 58.0631497,24.046824 58.7509573,22.9020903 C59.4387649,21.7573566 60.9246615,21.3868498 62.0697176,22.0746574 C72.0111654,28.0479101 77.7129065,37.8671454 77.7129065,49.0139493 C77.7129065,68.802364 60.0578282,105.27284 38.6322831,105.27284 C17.206738,105.27284 0,68.802364 0,49.0139493 Z" id="Fill-1" fill="#FF3E51" opacity="0.659999967"></path>
                <path d="M52.2806001,39.5457764 C44.7147166,39.5460989 37.4538804,32.2807483 37.1204566,31.94281 C36.1824199,30.9918749 36.1930611,29.4608339 37.1439962,28.5224747 C38.0949313,27.584438 39.6262947,27.5950792 40.5643314,28.5463368 C41.9996018,29.994183 45.6424346,33.0101532 49.3458899,34.206803 C47.316003,29.43149 49.0643821,25.9205434 49.1611202,25.7335165 C49.470037,25.1356753 50.0140274,24.6932599 50.6621724,24.5133271 C53.548836,23.7055644 57.416746,21.9439643 59.4327672,19.9518052 C56.1072352,19.7199564 53.3576171,18.6835693 51.0197807,17.8026081 C47.7577734,16.5737123 45.8049545,15.9191181 43.5928776,16.7684782 C42.345924,17.2466867 40.9470917,16.6243385 40.4682383,15.3777074 C39.9893849,14.1307538 40.6120555,12.7319215 41.8593316,12.2527457 C45.8962107,10.7039694 49.3681396,12.011223 52.7255952,13.2762343 C55.7302792,14.4083921 58.8371832,15.5782777 62.8682581,15.0178418 C63.561225,14.9201364 64.261931,15.1290906 64.7897984,15.5885964 C65.3176657,16.0477797 65.6207783,16.7130151 65.6207783,17.4127537 C65.6207783,23.9861047 56.7773075,27.5957241 53.2528176,28.7736712 C53.0712725,29.9932157 53.1918726,32.3978013 55.7825178,35.3821704 C56.347468,36.0328951 56.5235313,36.9357836 56.2439583,37.7516079 C55.9643853,38.5671097 55.2717408,39.1723675 54.4259278,39.3397244 C53.7116784,39.4812844 52.9948494,39.5457764 52.2806001,39.5457764" id="Fill-3" fill="#3DB21E" opacity="0.659999967"></path>
                <path d="M24.7873861,39.5457764 C24.0728143,39.5460989 23.3566302,39.4812844 22.6420584,39.3397244 C21.7962453,39.1723675 21.1036008,38.5671097 20.8240278,37.7516079 C20.5444548,36.9357836 20.7205181,36.0328951 21.2854684,35.3821704 C23.8761136,32.3978013 23.9967137,29.9932157 23.8151686,28.7736712 C20.2906787,27.5957241 11.4472079,23.9861047 11.4472079,17.4127537 C11.4472079,16.7130151 11.7503205,16.0477797 12.2781878,15.5885964 C12.8060551,15.1287681 13.508051,14.9198139 14.1997281,15.0178418 C18.2882009,15.5869841 20.7859775,14.6215383 23.4311185,13.5986945 C26.2349099,12.5145834 29.4127551,11.28601 34.1238985,12.1302108 C35.4385687,12.3659292 36.3134032,13.6225566 36.0776848,14.9375492 C35.8419664,16.2522195 34.5846941,17.1283438 33.2703464,16.8910131 C29.8928983,16.2851104 27.8114177,17.0902935 25.1756281,18.1099126 C23.0680283,18.925092 20.7588909,19.8173393 17.679396,19.9953374 C19.7076706,21.9694387 23.540755,23.7116911 26.408071,24.5139721 C27.0542812,24.6948722 27.5989165,25.1369652 27.906866,25.7335165 C28.003604,25.9205434 29.7519832,29.43149 27.7220963,34.206803 C31.4258741,33.0101532 35.0687069,29.9938606 36.5059119,28.5440796 C37.4455609,27.5966915 38.975957,27.5873402 39.9249574,28.5260218 C40.8739577,29.4640585 40.8845989,30.9928423 39.9475296,31.94281 C39.6141057,32.2807483 32.3526246,39.5451315 24.7873861,39.5457764" id="Fill-5" fill="#3DB21E" opacity="0.659999967"></path>
                <path d="M42.8251643,20.3295029 C41.5462872,20.3295029 40.4782991,19.3266517 40.4118723,18.0348761 L39.810484,6.30990106 C39.7427674,5.4824682 39.0436737,4.8369029 38.2114039,4.8369029 C37.3791341,4.8369029 36.6800404,5.4824682 36.6123238,6.31022352 L36.011258,18.0348761 C35.9428964,19.368894 34.8097713,20.4014115 33.471884,20.3262783 C32.1378662,20.2579167 31.1121203,19.1212445 31.1804818,17.7872267 L31.7831599,6.03387513 C31.7841273,6.01807458 31.7850947,6.00259649 31.7860621,5.98679594 C32.0233928,2.62966287 34.8458869,0 38.2114039,0 C41.5772434,0 44.3997375,2.62966287 44.6367457,5.98711841 C44.6380355,6.00259649 44.6390029,6.01807458 44.6396478,6.03387513 L45.2426484,17.7872267 C45.3106875,19.1212445 44.2849416,20.2579167 42.9512463,20.3262783 C42.909004,20.3285355 42.8667617,20.3295029 42.8251643,20.3295029" id="Fill-7" fill="#41C347" opacity="0.659999967"></path>
                <circle id="Oval" fill="#FF3E51" opacity="0.66" cx="46.4587256" cy="59.9115397" r="3"></circle>
                <circle id="Oval-Copy" fill="#FF3E51" opacity="0.66" cx="60.6435429" cy="56.9115397" r="3"></circle>
                <circle id="Oval-Copy-2" fill="#FF3E51" opacity="0.66" cx="57.6435429" cy="70.9779984" r="3"></circle>
                <circle id="Oval-Copy-3" fill="#FF3E51" opacity="0.66" cx="41.8564533" cy="72.4106445" r="3"></circle>
                <circle id="Oval-Copy-4" fill="#FF3E51" opacity="0.66" cx="49.4587256" cy="84.9887592" r="3"></circle>
                <circle id="Oval-Copy-5" fill="#FF3E51" opacity="0.66" cx="13.0364389" cy="46.5434464" r="3"></circle>
            </g>
        </g>
    </g>
</svg>